<?xml version="1.0" standalone="no"?>
<!DOCTYPE svg PUBLIC "-//W3C//DTD SVG 20010904//EN"
 "http://www.w3.org/TR/2001/REC-SVG-20010904/DTD/svg10.dtd">
<svg version="1.0" xmlns="http://www.w3.org/2000/svg"
 width="450.000000pt" height="450.000000pt" viewBox="0 0 450.000000 450.000000"
 preserveAspectRatio="xMidYMid meet">
<metadata>
Created by potrace 1.10, written by Peter Selinger 2001-2011
</metadata>
<g transform="translate(0.000000,450.000000) scale(0.100000,-0.100000)"
fill="#000000" stroke="none">
<path d="M3849 3661 c-17 -14 -24 -29 -24 -58 0 -32 11 -52 64 -121 34 -46 61
-89 58 -95 -3 -7 -121 -100 -263 -206 -143 -107 -263 -199 -269 -206 -5 -6
-32 -26 -60 -44 -27 -19 -54 -39 -60 -46 -5 -6 -35 -29 -65 -50 -30 -21 -57
-41 -60 -45 -3 -4 -30 -24 -60 -45 -30 -21 -57 -41 -60 -45 -3 -4 -23 -20 -46
-36 -23 -16 -159 -118 -304 -228 -145 -109 -270 -201 -279 -203 -12 -3 -45 34
-111 123 -52 71 -103 136 -113 146 -10 11 -25 31 -35 47 -29 47 -93 123 -163
192 -73 72 -181 159 -198 159 -6 0 -11 4 -11 9 0 5 -12 14 -27 20 -16 6 -50
23 -78 37 -84 44 -154 71 -220 84 -22 5 -58 13 -80 19 -63 17 -360 14 -428 -4
-32 -8 -66 -15 -75 -15 -9 0 -30 -7 -46 -15 -15 -8 -35 -15 -43 -15 -16 0 -33
-8 -147 -70 -62 -34 -196 -139 -272 -215 -113 -113 -204 -269 -247 -425 -9
-30 -21 -73 -27 -95 -17 -58 -24 -337 -10 -410 22 -120 27 -141 39 -180 30
-91 102 -236 137 -274 13 -14 24 -30 24 -34 0 -8 28 -46 84 -114 68 -83 121
-133 201 -190 91 -65 259 -153 292 -153 11 0 23 -4 29 -10 5 -5 30 -14 54 -19
25 -5 63 -14 85 -20 52 -14 378 -14 430 0 22 6 60 15 85 20 24 5 49 14 54 19
6 6 18 10 27 10 15 0 127 53 174 83 17 11 324 238 350 259 6 5 33 25 60 45 28
20 54 43 58 50 4 7 13 13 19 13 12 0 90 59 101 77 4 7 13 13 20 13 7 0 38 22
69 48 54 45 88 70 182 137 23 17 53 41 67 53 13 13 43 35 67 49 23 14 42 28
42 31 0 4 24 23 53 42 28 19 62 44 75 56 12 12 41 34 65 50 23 16 44 32 47 35
3 3 232 176 510 384 278 208 509 384 513 392 4 7 13 13 19 13 12 0 90 59 101
77 4 7 13 13 20 13 7 0 35 19 62 43 28 24 66 53 86 65 50 30 67 64 48 100 -8
15 -20 31 -26 35 -7 4 -13 13 -13 20 0 7 -22 38 -48 69 -26 31 -60 76 -77 99
-16 23 -48 65 -70 94 -22 30 -54 73 -72 97 -17 24 -40 52 -49 63 -10 10 -32
40 -49 65 -61 90 -119 150 -145 150 -10 0 -28 -9 -41 -19z m310 -538 c50 -67
91 -130 91 -140 0 -11 -15 -26 -34 -37 -18 -10 -48 -31 -65 -47 -18 -16 -53
-43 -79 -60 -26 -18 -51 -37 -57 -43 -5 -7 -31 -26 -57 -44 -25 -18 -52 -38
-60 -45 -7 -7 -38 -31 -68 -52 -30 -21 -57 -41 -60 -45 -3 -4 -23 -20 -46 -36
-22 -16 -255 -190 -517 -387 -262 -197 -482 -357 -491 -355 -16 3 -196 236
-196 254 0 13 78 82 116 102 23 12 27 10 57 -25 67 -78 85 -93 114 -93 31 1
52 14 71 48 15 27 1 63 -49 128 -20 27 -29 48 -25 60 6 19 122 104 142 104 6
0 16 -11 22 -26 7 -14 28 -32 48 -40 32 -14 38 -13 60 1 43 28 52 97 18 126
-30 25 -16 53 55 106 l70 52 23 -30 c67 -88 90 -109 121 -109 41 0 77 35 77
74 0 20 -14 48 -45 87 -25 32 -43 64 -40 72 3 7 35 35 70 61 55 40 67 45 85
36 11 -6 20 -15 20 -20 0 -4 16 -18 35 -30 30 -19 38 -20 62 -8 15 7 34 25 43
41 14 25 13 30 -7 67 -33 56 -29 71 25 111 85 64 92 66 116 33 77 -107 123
-128 171 -79 35 34 31 60 -19 135 -25 35 -41 70 -38 77 11 19 137 111 143 104
3 -3 47 -61 98 -128z m-2804 -209 c81 -18 187 -50 213 -63 9 -5 37 -19 62 -31
86 -40 210 -132 286 -212 58 -60 654 -852 661 -877 3 -12 -41 -50 -148 -131
-84 -63 -171 -128 -193 -143 -23 -16 -45 -34 -51 -41 -5 -7 -31 -26 -57 -44
-25 -18 -52 -38 -60 -45 -7 -7 -37 -30 -66 -50 -28 -21 -62 -46 -75 -57 -93
-80 -308 -210 -348 -210 -6 0 -25 -6 -42 -14 -98 -43 -330 -58 -462 -31 -215
45 -372 125 -514 261 -175 166 -268 341 -316 590 -27 143 -15 289 36 454 56
179 195 378 329 470 19 13 37 27 40 30 21 23 151 84 235 111 164 52 334 64
470 33z"/>
<path d="M1055 2503 c-11 -2 -56 -22 -100 -43 -133 -65 -233 -179 -285 -327
-28 -79 -28 -265 -1 -349 32 -101 73 -166 151 -244 77 -77 139 -116 243 -152
50 -17 77 -19 190 -16 73 2 141 8 152 14 11 6 51 26 89 45 90 44 182 136 226
226 71 143 85 268 46 414 -13 51 -20 69 -47 119 -5 8 -16 30 -25 48 -21 41
-143 168 -176 182 -13 6 -41 21 -63 35 -22 13 -49 24 -60 25 -12 0 -27 6 -33
13 -13 12 -265 21 -307 10z m265 -162 c87 -30 121 -51 180 -110 101 -103 145
-237 121 -375 -6 -41 -21 -91 -32 -112 -87 -173 -295 -263 -478 -207 -187 57
-310 222 -311 417 0 98 25 172 85 248 104 133 284 190 435 139z"/>
</g>
</svg>
