<?xml version="1.0" encoding="utf-8"?>
<!-- Generator: Adobe Illustrator 16.0.0, SVG Export Plug-In . SVG Version: 6.00 Build 0)  -->
<!DOCTYPE svg PUBLIC "-//W3C//DTD SVG 1.1//EN" "http://www.w3.org/Graphics/SVG/1.1/DTD/svg11.dtd">
<svg version="1.1" id="Layer_1" xmlns="http://www.w3.org/2000/svg" xmlns:xlink="http://www.w3.org/1999/xlink" x="0px" y="0px"
	 width="4098.75px" height="721.805px" viewBox="0 0 4098.75 721.805" enable-background="new 0 0 4098.75 721.805"
	 xml:space="preserve">
<g>
	<defs>
		<rect id="SVGID_1_" width="4098.754" height="721.805"/>
	</defs>
	<clipPath id="SVGID_2_">
		<use xlink:href="#SVGID_1_"  overflow="visible"/>
	</clipPath>
	<path clip-path="url(#SVGID_2_)" d="M57.492,196.319v86.257h2.983c16.498-31.756,38.163-56.528,64.917-74.356
		c26.789-17.873,60.996-26.789,102.633-26.789c33.725,0,64.274,8.271,91.706,24.813c27.432,16.501,45.791,41.636,55.028,75.323
		c15.212-33.687,37.687-58.822,67.416-75.323c29.777-16.542,61.49-24.813,95.216-24.813c113.009,0,169.527,59.832,169.527,179.454
		v347.046h-62.449V363.871c0-42.281-8.916-74.512-26.789-96.666c-17.837-22.15-49.221-33.209-94.17-33.209
		c-27.109,0-49.583,5.124-67.414,15.376c-17.872,10.248-32.076,23.965-42.644,41.152c-10.608,17.187-18.037,36.835-22.308,58.984
		c-4.322,22.155-6.461,45.106-6.461,68.909v289.515h-62.448V360.885c0-17.141-1.861-33.526-5.447-49.059
		c-3.676-15.538-9.609-29.089-17.873-40.673c-8.27-11.533-19.325-20.656-33.206-27.263c-13.881-6.581-30.745-9.894-50.55-9.894
		c-26.466,0-49.427,4.801-68.911,14.373c-19.525,9.596-35.38,22.784-47.61,39.648c-12.219,16.865-21.342,36.679-27.275,59.519
		c-5.923,22.785-8.913,47.724-8.913,74.835v285.561H0V196.319H57.492z"/>
	<path clip-path="url(#SVGID_2_)" d="M1151.115,428.342c-3.949,7.262-11.534,12.542-22.795,15.855
		c-11.254,3.308-21.136,5.612-29.729,6.938c-26.467,4.641-53.699,8.755-81.825,12.387c-28.077,3.631-53.699,9.077-76.811,16.38
		c-23.158,7.262-42.163,17.671-57.01,31.222c-14.89,13.561-22.311,32.886-22.311,57.98c0,15.896,3.107,29.936,9.403,42.165
		c6.289,12.22,14.724,22.79,25.291,31.701c10.568,8.927,22.798,15.739,36.679,20.339c13.873,4.64,28.077,6.939,42.644,6.939
		c23.804,0,46.593-3.631,68.423-10.894c21.789-7.262,40.791-17.871,57.004-31.751c16.179-13.884,29.092-30.743,38.651-50.552
		c9.602-19.845,14.403-42.281,14.403-67.417v-81.294H1151.115z M838.805,275.631c10.576-21.821,24.936-39.648,43.131-53.532
		c18.193-13.879,39.495-24.126,63.944-30.743c24.449-6.621,51.566-9.925,81.295-9.925c22.475,0,44.949,2.179,67.457,6.455
		c22.434,4.317,42.602,12.386,60.482,24.288c17.832,11.901,32.357,28.604,43.61,50.067c11.254,21.504,16.864,49.423,16.864,83.797
		V617.72c0,25.095,12.222,37.637,36.671,37.637c7.262,0,13.881-1.286,19.855-3.948v52.569c-7.305,1.331-13.717,2.305-19.328,2.945
		c-5.65,0.687-12.749,1.008-21.342,1.008c-15.855,0-28.604-2.138-38.164-6.449c-9.602-4.282-17.031-10.413-22.31-18.322
		c-5.289-7.947-8.758-17.348-10.41-28.281c-1.654-10.889-2.463-22.951-2.463-36.189h-2.015
		c-11.221,16.541-22.641,31.227-34.217,44.137c-11.534,12.865-24.449,23.643-38.651,32.236
		c-14.196,8.593-30.415,15.169-48.577,19.813c-18.193,4.595-39.818,6.93-64.953,6.93c-23.804,0-46.112-2.819-66.927-8.427
		c-20.821-5.608-39.016-14.524-54.509-26.749c-15.575-12.225-27.795-27.798-36.711-46.599
		c-8.924-18.841-13.402-41.146-13.402-66.937c0-35.7,7.95-63.619,23.806-83.791c15.856-20.178,36.835-35.544,62.978-46.114
		c26.109-10.575,55.515-17.994,88.237-22.306c32.72-4.282,65.926-8.438,99.654-12.386c13.228-1.342,24.772-2.991,34.694-4.968
		c9.925-1.977,18.196-5.446,24.814-10.409c6.576-4.957,11.7-11.74,15.326-20.334c3.636-8.552,5.487-19.808,5.487-33.687
		c0-21.146-3.47-38.53-10.404-52.091c-6.94-13.505-16.542-24.282-28.768-32.189c-12.222-7.949-26.467-13.395-42.645-16.386
		c-16.218-2.94-33.572-4.438-52.047-4.438c-39.659,0-72.059,9.406-97.193,28.246c-25.093,18.847-38.321,49.1-39.652,90.737h-62.456
		C821.94,323.243,828.237,297.463,838.805,275.631"/>
	<path clip-path="url(#SVGID_2_)" d="M1390.606,530.939c6.248,26.144,16.177,49.422,29.729,69.917
		c13.561,20.495,30.904,37.158,52.047,50.068c21.144,12.87,46.601,19.325,76.37,19.325c33.043,0,60.964-6.455,83.759-19.325
		c22.797-12.91,41.312-29.573,55.517-50.068c14.237-20.495,24.449-43.773,30.738-69.917c6.296-26.104,9.443-52.368,9.443-78.834
		c0-26.421-3.147-52.69-9.443-78.794c-6.289-26.098-16.501-49.422-30.738-69.917c-14.205-20.495-32.72-37.198-55.517-50.068
		c-22.795-12.911-50.716-19.331-83.759-19.331c-29.769,0-55.226,6.42-76.37,19.331c-21.143,12.87-38.486,29.573-52.047,50.068
		c-13.552,20.495-23.481,43.819-29.729,69.917c-6.297,26.104-9.444,52.373-9.444,78.794
		C1381.163,478.571,1384.31,504.835,1390.606,530.939 M1733.177,707.931v-97.15h-1.984c-6.62,16.502-16.377,31.713-29.25,45.595
		c-12.906,13.874-27.639,25.614-44.137,35.176c-16.544,9.598-34.208,17.026-53.049,22.317c-18.846,5.279-37.528,7.937-56.004,7.937
		c-39.015,0-72.9-7.096-101.671-21.297c-28.72-14.196-52.683-33.729-71.852-58.5c-19.201-24.813-33.406-53.538-42.642-86.258
		c-9.279-32.72-13.881-67.255-13.881-103.646c0-36.311,4.602-70.886,13.881-103.606c9.236-32.719,23.441-61.491,42.642-86.257
		c19.169-24.772,43.132-44.465,71.852-58.979c28.771-14.529,62.656-21.832,101.671-21.832c19.172,0,37.804,2.34,56.004,6.939
		c18.155,4.635,35.216,11.741,51.071,21.343c15.859,9.562,29.896,21.302,42.125,35.181c12.22,13.873,21.663,30.097,28.283,48.575
		h1.974V0h62.456v707.931H1733.177z"/>
	<path clip-path="url(#SVGID_2_)" d="M2265.083,348.015c-7.587-21.821-18.361-41.151-32.242-58.016
		c-13.882-16.864-30.746-30.38-50.55-40.628c-19.848-10.252-42.322-15.376-67.414-15.376c-25.78,0-48.577,5.124-68.425,15.376
		c-19.811,10.248-36.675,23.764-50.556,40.628c-13.874,16.865-24.972,36.351-33.243,58.5c-8.27,22.145-13.714,44.783-16.341,67.936
		h331.155C2276.816,392.642,2272.658,369.841,2265.083,348.015 M1955.714,538.886c6.294,24.127,16.383,45.792,30.257,64.956
		c13.881,19.158,31.39,35.014,52.533,47.566c21.179,12.587,46.634,18.841,76.373,18.841c45.585,0,81.295-11.901,107.074-35.705
		c25.779-23.763,43.611-55.514,53.533-95.174h62.457c-13.235,58.173-37.521,103.122-72.858,134.833
		c-35.39,31.756-85.452,47.602-150.206,47.602c-40.348,0-75.208-7.096-104.614-21.297c-29.414-14.196-53.376-33.729-71.903-58.5
		c-18.515-24.813-32.189-53.538-41.146-86.258c-8.916-32.719-13.352-67.255-13.352-103.646c0-33.688,4.436-66.73,13.352-99.127
		c8.957-32.398,22.631-61.324,41.146-86.782c18.527-25.417,42.489-45.913,71.903-61.446c29.406-15.538,64.267-23.319,104.614-23.319
		c40.947,0,76.007,8.27,105.099,24.812c29.086,16.501,52.683,38.166,70.886,64.91c18.152,26.799,31.225,57.537,39.172,92.239
		c7.908,34.691,11.214,69.877,9.925,105.577h-393.646C1946.312,491.446,1949.418,514.76,1955.714,538.886"/>
	<path clip-path="url(#SVGID_2_)" d="M2549.144,512.103c3.957,19.521,10.732,37.031,20.334,52.564
		c9.567,15.532,22.316,27.918,38.164,37.157c15.857,9.279,35.713,13.879,59.515,13.879c23.797,0,43.768-4.6,59.989-13.879
		c16.177-9.239,29.05-21.625,38.652-37.157c9.56-15.533,16.343-33.043,20.334-52.564c3.957-19.492,5.933-39.503,5.933-59.998
		c0-20.455-1.976-40.627-5.933-60.472c-3.991-19.814-10.774-37.324-20.334-52.534c-9.603-15.21-22.476-27.596-38.652-37.198
		c-16.222-9.562-36.192-14.363-59.989-14.363c-23.802,0-43.657,4.801-59.515,14.363c-15.848,9.602-28.597,21.988-38.164,37.198
		c-9.602,15.21-16.377,32.72-20.334,52.534c-3.952,19.845-5.925,40.017-5.925,60.472
		C2543.219,472.6,2545.191,492.611,2549.144,512.103 M2421.253,340.591c12.543-33.405,30.383-61.808,53.535-85.294
		c23.118-23.43,50.88-41.636,83.27-54.541c32.399-12.87,68.755-19.325,109.099-19.325c40.306,0,76.811,6.455,109.53,19.325
		c32.722,12.905,60.641,31.111,83.8,54.541c23.119,23.486,40.991,51.889,53.541,85.294c12.545,33.365,18.838,70.563,18.838,111.514
		c0,40.99-6.293,78.027-18.838,111.069c-12.55,33.042-30.422,61.324-53.541,84.765c-23.159,23.48-51.078,41.51-83.8,54.062
		c-32.72,12.553-69.225,18.801-109.53,18.801c-40.344,0-76.699-6.248-109.099-18.801c-32.39-12.552-60.151-30.581-83.27-54.062
		c-23.152-23.44-40.992-51.723-53.535-84.765c-12.592-33.042-18.838-70.079-18.838-111.069
		C2402.415,411.155,2408.661,373.957,2421.253,340.591"/>
	<path clip-path="url(#SVGID_2_)" d="M3157.95,195.31v71.41h2.983c17.836-29.774,40.949-51.394,69.397-64.955
		c28.397-13.56,57.492-20.334,87.261-20.334c37.645,0,68.545,5.124,92.672,15.366c24.129,10.258,43.174,24.45,57.045,42.656
		c13.882,18.19,23.607,40.294,29.25,66.402c5.611,26.143,8.397,55.03,8.397,86.787v315.289h-140.763V418.417
		c0-42.321-6.619-73.872-19.848-94.688c-13.235-20.818-36.679-31.232-70.404-31.232c-38.332,0-66.086,11.377-83.271,34.217
		c-17.187,22.795-25.781,60.316-25.781,112.522v268.696h-140.803V195.31H3157.95z"/>
	<path clip-path="url(#SVGID_2_)" d="M3921.877,315.295c-16.861-18.519-42.485-27.757-76.856-27.757
		c-22.467,0-41.106,3.792-55.996,11.377c-14.89,7.625-26.789,17.025-35.704,28.282c-8.916,11.256-15.211,23.153-18.848,35.706
		c-3.626,12.552-5.767,23.763-6.452,33.688h229.08C3950.484,360.885,3938.74,333.81,3921.877,315.295 M3762.757,585
		c21.144,20.495,51.565,30.703,91.22,30.703c28.406,0,52.854-7.061,73.348-21.298c20.5-14.206,33.041-29.259,37.685-45.105h123.938
		c-19.812,61.48-50.227,105.416-91.217,131.848c-40.992,26.461-90.576,39.653-148.711,39.653c-40.348,0-76.703-6.414-109.093-19.319
		c-32.397-12.876-59.836-31.232-82.263-55.036c-22.515-23.809-39.866-52.206-52.088-85.248
		c-12.227-33.043-18.316-69.434-18.316-109.094c0-38.327,6.253-73.991,18.839-107.075c12.55-33.043,30.382-61.606,53.542-85.773
		c23.118-24.126,50.706-43.129,82.783-57.002c32.033-13.884,67.58-20.823,106.596-20.823c43.61,0,81.618,8.437,114.014,25.301
		c32.391,16.865,58.98,39.493,79.803,67.89c20.813,28.448,35.867,60.846,45.146,97.196c9.236,36.346,12.542,74.355,9.881,114.015
		h-369.843C3730.037,531.417,3741.578,564.505,3762.757,585"/>
</g>
</svg>
